// Jest Snapshot v1, https://goo.gl/fbAQLP

exports[`Contact Render Contact with all props 1`] = `
"<Contact id=\\"1\\" name=\\"Jon Doe\\" email=\\"jondoe@gmail.com\\" onDClick={[Function: mockConstructor]} onClickDelete={[Function: mockConstructor]}>
  <form id=\\"1\\">
    <Styled(MuiBox) className=\\"contact-box\\">
      <div className=\\"MuiBox-root MuiBox-root-2 contact-box\\">
        <Styled(MuiBox) className=\\"contact contact-name\\">
          <div className=\\"MuiBox-root MuiBox-root-3 contact contact-name\\">
            <WithStyles(ForwardRef(Avatar)) className=\\"avatar\\">
              <ForwardRef(Avatar) classes={{...}} className=\\"avatar\\">
                <div className=\\"MuiAvatar-root avatar MuiAvatar-colorDefault\\">
                  J
                </div>
              </ForwardRef(Avatar)>
            </WithStyles(ForwardRef(Avatar))>
            <WithStyles(ForwardRef(FormControl)) className=\\"contact-text\\">
              <ForwardRef(FormControl) classes={{...}} className=\\"contact-text\\">
                <div className=\\"MuiFormControl-root contact-text\\">
                  <WithStyles(ForwardRef(TextField)) onDoubleClick={[Function: mockConstructor]} margin=\\"normal\\" name=\\"name\\" type=\\"text\\" value=\\"Jon Doe\\" variant=\\"outlined\\" disabled={true}>
                    <ForwardRef(TextField) classes={{...}} onDoubleClick={[Function: mockConstructor]} margin=\\"normal\\" name=\\"name\\" type=\\"text\\" value=\\"Jon Doe\\" variant=\\"outlined\\" disabled={true}>
                      <WithStyles(ForwardRef(FormControl)) className=\\"MuiTextField-root\\" error={[undefined]} fullWidth={[undefined]} hiddenLabel={[undefined]} required={false} variant=\\"outlined\\" onDoubleClick={[Function: mockConstructor]} margin=\\"normal\\" disabled={true}>
                        <ForwardRef(FormControl) classes={{...}} className=\\"MuiTextField-root\\" error={[undefined]} fullWidth={[undefined]} hiddenLabel={[undefined]} required={false} variant=\\"outlined\\" onDoubleClick={[Function: mockConstructor]} margin=\\"normal\\" disabled={true}>
                          <div className=\\"MuiFormControl-root MuiTextField-root MuiFormControl-marginNormal\\" onDoubleClick={[Function: mockConstructor]}>
                            <WithStyles(ForwardRef(OutlinedInput)) aria-describedby={[undefined]} autoComplete={[undefined]} autoFocus={[undefined]} defaultValue={[undefined]} fullWidth={[undefined]} multiline={[undefined]} name=\\"name\\" rows={[undefined]} rowsMax={[undefined]} type=\\"text\\" value=\\"Jon Doe\\" id={[undefined]} inputRef={[undefined]} onBlur={[undefined]} onChange={[undefined]} onFocus={[undefined]} placeholder={[undefined]} inputProps={[undefined]} labelWidth={0}>
                              <ForwardRef(OutlinedInput) classes={{...}} aria-describedby={[undefined]} autoComplete={[undefined]} autoFocus={[undefined]} defaultValue={[undefined]} fullWidth={[undefined]} multiline={[undefined]} name=\\"name\\" rows={[undefined]} rowsMax={[undefined]} type=\\"text\\" value=\\"Jon Doe\\" id={[undefined]} inputRef={[undefined]} onBlur={[undefined]} onChange={[undefined]} onFocus={[undefined]} placeholder={[undefined]} inputProps={[undefined]} labelWidth={0}>
                                <WithStyles(ForwardRef(InputBase)) renderPrefix={[Function: renderPrefix]} classes={{...}} fullWidth={false} inputComponent=\\"input\\" multiline={false} type=\\"text\\" aria-describedby={[undefined]} autoComplete={[undefined]} autoFocus={[undefined]} defaultValue={[undefined]} name=\\"name\\" rows={[undefined]} rowsMax={[undefined]} value=\\"Jon Doe\\" id={[undefined]} inputRef={[undefined]} onBlur={[undefined]} onChange={[undefined]} onFocus={[undefined]} placeholder={[undefined]} inputProps={[undefined]}>
                                  <ForwardRef(InputBase) classes={{...}} renderPrefix={[Function: renderPrefix]} fullWidth={false} inputComponent=\\"input\\" multiline={false} type=\\"text\\" aria-describedby={[undefined]} autoComplete={[undefined]} autoFocus={[undefined]} defaultValue={[undefined]} name=\\"name\\" rows={[undefined]} rowsMax={[undefined]} value=\\"Jon Doe\\" id={[undefined]} inputRef={[undefined]} onBlur={[undefined]} onChange={[undefined]} onFocus={[undefined]} placeholder={[undefined]} inputProps={[undefined]}>
                                    <div className=\\"MuiInputBase-root MuiOutlinedInput-root Mui-disabled Mui-disabled MuiInputBase-formControl\\" onClick={[Function: handleClick]}>
                                      <WithStyles(ForwardRef(NotchedOutline)) className=\\"MuiOutlinedInput-notchedOutline\\" labelWidth={0} notched={true}>
                                        <ForwardRef(NotchedOutline) classes={{...}} className=\\"MuiOutlinedInput-notchedOutline\\" labelWidth={0} notched={true} theme={{...}}>
                                          <fieldset aria-hidden={true} style={{...}} className=\\"PrivateNotchedOutline-root-45 MuiOutlinedInput-notchedOutline\\">
                                            <legend className=\\"PrivateNotchedOutline-legend-46\\" style={{...}}>
                                              <span dangerouslySetInnerHTML={{...}} />
                                            </legend>
                                          </fieldset>
                                        </ForwardRef(NotchedOutline)>
                                      </WithStyles(ForwardRef(NotchedOutline))>
                                      <input aria-invalid={false} aria-describedby={[undefined]} autoComplete={[undefined]} autoFocus={[undefined]} className=\\"MuiInputBase-input MuiOutlinedInput-input Mui-disabled Mui-disabled\\" defaultValue={[undefined]} disabled={true} id={[undefined]} name=\\"name\\" onBlur={[Function: handleBlur]} onChange={[Function: handleChange]} onFocus={[Function: handleFocus]} onKeyDown={[undefined]} onKeyUp={[undefined]} placeholder={[undefined]} readOnly={[undefined]} required={false} rows={[undefined]} value=\\"Jon Doe\\" type=\\"text\\" />
                                    </div>
                                  </ForwardRef(InputBase)>
                                </WithStyles(ForwardRef(InputBase))>
                              </ForwardRef(OutlinedInput)>
                            </WithStyles(ForwardRef(OutlinedInput))>
                          </div>
                        </ForwardRef(FormControl)>
                      </WithStyles(ForwardRef(FormControl))>
                    </ForwardRef(TextField)>
                  </WithStyles(ForwardRef(TextField))>
                </div>
              </ForwardRef(FormControl)>
            </WithStyles(ForwardRef(FormControl))>
          </div>
        </Styled(MuiBox)>
        <Styled(MuiBox) className=\\"contact contact-email\\">
          <div className=\\"MuiBox-root MuiBox-root-47 contact contact-email\\">
            <WithStyles(ForwardRef(Avatar)) className=\\"avatar\\">
              <ForwardRef(Avatar) classes={{...}} className=\\"avatar\\">
                <div className=\\"MuiAvatar-root avatar MuiAvatar-colorDefault\\">
                  <ForwardRef>
                    <WithStyles(ForwardRef(SvgIcon))>
                      <ForwardRef(SvgIcon) classes={{...}}>
                        <svg className=\\"MuiSvgIcon-root\\" focusable=\\"false\\" viewBox=\\"0 0 24 24\\" color={[undefined]} aria-hidden=\\"true\\" role=\\"presentation\\">
                          <path d=\\"M20 4H4c-1.1 0-1.99.9-1.99 2L2 18c0 1.1.9 2 2 2h16c1.1 0 2-.9 2-2V6c0-1.1-.9-2-2-2zm0 4l-8 5-8-5V6l8 5 8-5v2z\\" />
                        </svg>
                      </ForwardRef(SvgIcon)>
                    </WithStyles(ForwardRef(SvgIcon))>
                  </ForwardRef>
                </div>
              </ForwardRef(Avatar)>
            </WithStyles(ForwardRef(Avatar))>
            <WithStyles(ForwardRef(FormControl)) className=\\"contact-text\\">
              <ForwardRef(FormControl) classes={{...}} className=\\"contact-text\\">
                <div className=\\"MuiFormControl-root contact-text\\">
                  <WithStyles(ForwardRef(TextField)) onDoubleClick={[Function: mockConstructor]} margin=\\"normal\\" name=\\"address\\" type=\\"text\\" value=\\"jondoe@gmail.com\\" variant=\\"outlined\\" disabled={true}>
                    <ForwardRef(TextField) classes={{...}} onDoubleClick={[Function: mockConstructor]} margin=\\"normal\\" name=\\"address\\" type=\\"text\\" value=\\"jondoe@gmail.com\\" variant=\\"outlined\\" disabled={true}>
                      <WithStyles(ForwardRef(FormControl)) className=\\"MuiTextField-root\\" error={[undefined]} fullWidth={[undefined]} hiddenLabel={[undefined]} required={false} variant=\\"outlined\\" onDoubleClick={[Function: mockConstructor]} margin=\\"normal\\" disabled={true}>
                        <ForwardRef(FormControl) classes={{...}} className=\\"MuiTextField-root\\" error={[undefined]} fullWidth={[undefined]} hiddenLabel={[undefined]} required={false} variant=\\"outlined\\" onDoubleClick={[Function: mockConstructor]} margin=\\"normal\\" disabled={true}>
                          <div className=\\"MuiFormControl-root MuiTextField-root MuiFormControl-marginNormal\\" onDoubleClick={[Function: mockConstructor]}>
                            <WithStyles(ForwardRef(OutlinedInput)) aria-describedby={[undefined]} autoComplete={[undefined]} autoFocus={[undefined]} defaultValue={[undefined]} fullWidth={[undefined]} multiline={[undefined]} name=\\"address\\" rows={[undefined]} rowsMax={[undefined]} type=\\"text\\" value=\\"jondoe@gmail.com\\" id={[undefined]} inputRef={[undefined]} onBlur={[undefined]} onChange={[undefined]} onFocus={[undefined]} placeholder={[undefined]} inputProps={[undefined]} labelWidth={0}>
                              <ForwardRef(OutlinedInput) classes={{...}} aria-describedby={[undefined]} autoComplete={[undefined]} autoFocus={[undefined]} defaultValue={[undefined]} fullWidth={[undefined]} multiline={[undefined]} name=\\"address\\" rows={[undefined]} rowsMax={[undefined]} type=\\"text\\" value=\\"jondoe@gmail.com\\" id={[undefined]} inputRef={[undefined]} onBlur={[undefined]} onChange={[undefined]} onFocus={[undefined]} placeholder={[undefined]} inputProps={[undefined]} labelWidth={0}>
                                <WithStyles(ForwardRef(InputBase)) renderPrefix={[Function: renderPrefix]} classes={{...}} fullWidth={false} inputComponent=\\"input\\" multiline={false} type=\\"text\\" aria-describedby={[undefined]} autoComplete={[undefined]} autoFocus={[undefined]} defaultValue={[undefined]} name=\\"address\\" rows={[undefined]} rowsMax={[undefined]} value=\\"jondoe@gmail.com\\" id={[undefined]} inputRef={[undefined]} onBlur={[undefined]} onChange={[undefined]} onFocus={[undefined]} placeholder={[undefined]} inputProps={[undefined]}>
                                  <ForwardRef(InputBase) classes={{...}} renderPrefix={[Function: renderPrefix]} fullWidth={false} inputComponent=\\"input\\" multiline={false} type=\\"text\\" aria-describedby={[undefined]} autoComplete={[undefined]} autoFocus={[undefined]} defaultValue={[undefined]} name=\\"address\\" rows={[undefined]} rowsMax={[undefined]} value=\\"jondoe@gmail.com\\" id={[undefined]} inputRef={[undefined]} onBlur={[undefined]} onChange={[undefined]} onFocus={[undefined]} placeholder={[undefined]} inputProps={[undefined]}>
                                    <div className=\\"MuiInputBase-root MuiOutlinedInput-root Mui-disabled Mui-disabled MuiInputBase-formControl\\" onClick={[Function: handleClick]}>
                                      <WithStyles(ForwardRef(NotchedOutline)) className=\\"MuiOutlinedInput-notchedOutline\\" labelWidth={0} notched={true}>
                                        <ForwardRef(NotchedOutline) classes={{...}} className=\\"MuiOutlinedInput-notchedOutline\\" labelWidth={0} notched={true} theme={{...}}>
                                          <fieldset aria-hidden={true} style={{...}} className=\\"PrivateNotchedOutline-root-45 MuiOutlinedInput-notchedOutline\\">
                                            <legend className=\\"PrivateNotchedOutline-legend-46\\" style={{...}}>
                                              <span dangerouslySetInnerHTML={{...}} />
                                            </legend>
                                          </fieldset>
                                        </ForwardRef(NotchedOutline)>
                                      </WithStyles(ForwardRef(NotchedOutline))>
                                      <input aria-invalid={false} aria-describedby={[undefined]} autoComplete={[undefined]} autoFocus={[undefined]} className=\\"MuiInputBase-input MuiOutlinedInput-input Mui-disabled Mui-disabled\\" defaultValue={[undefined]} disabled={true} id={[undefined]} name=\\"address\\" onBlur={[Function: handleBlur]} onChange={[Function: handleChange]} onFocus={[Function: handleFocus]} onKeyDown={[undefined]} onKeyUp={[undefined]} placeholder={[undefined]} readOnly={[undefined]} required={false} rows={[undefined]} value=\\"jondoe@gmail.com\\" type=\\"text\\" />
                                    </div>
                                  </ForwardRef(InputBase)>
                                </WithStyles(ForwardRef(InputBase))>
                              </ForwardRef(OutlinedInput)>
                            </WithStyles(ForwardRef(OutlinedInput))>
                          </div>
                        </ForwardRef(FormControl)>
                      </WithStyles(ForwardRef(FormControl))>
                    </ForwardRef(TextField)>
                  </WithStyles(ForwardRef(TextField))>
                </div>
              </ForwardRef(FormControl)>
            </WithStyles(ForwardRef(FormControl))>
          </div>
        </Styled(MuiBox)>
        <WithStyles(ForwardRef(Button)) className=\\"contact-delete-btn\\" variant=\\"contained\\" color=\\"secondary\\" disabled={true} onClick={[Function: mockConstructor]}>
          <ForwardRef(Button) classes={{...}} className=\\"contact-delete-btn\\" variant=\\"contained\\" color=\\"secondary\\" disabled={true} onClick={[Function: mockConstructor]}>
            <WithStyles(ForwardRef(ButtonBase)) className=\\"MuiButton-root contact-delete-btn MuiButton-contained MuiButton-containedSecondary Mui-disabled\\" component=\\"button\\" disabled={true} focusRipple={true} focusVisibleClassName=\\"Mui-focusVisible\\" type=\\"button\\" onClick={[Function: mockConstructor]}>
              <ForwardRef(ButtonBase) classes={{...}} className=\\"MuiButton-root contact-delete-btn MuiButton-contained MuiButton-containedSecondary Mui-disabled\\" component=\\"button\\" disabled={true} focusRipple={true} focusVisibleClassName=\\"Mui-focusVisible\\" type=\\"button\\" onClick={[Function: mockConstructor]}>
                <button className=\\"MuiButtonBase-root MuiButton-root contact-delete-btn MuiButton-contained MuiButton-containedSecondary Mui-disabled Mui-disabled\\" onBlur={[Function]} onClick={[Function: mockConstructor]} onFocus={[Function]} onKeyDown={[Function]} onKeyUp={[Function]} onMouseDown={[Function]} onMouseLeave={[Function]} onMouseUp={[Function]} onDragLeave={[Function]} onTouchEnd={[Function]} onTouchMove={[Function]} onTouchStart={[Function]} tabIndex={-1} type=\\"button\\" disabled={true}>
                  <span className=\\"MuiButton-label\\">
                    X
                  </span>
                </button>
              </ForwardRef(ButtonBase)>
            </WithStyles(ForwardRef(ButtonBase))>
          </ForwardRef(Button)>
        </WithStyles(ForwardRef(Button))>
      </div>
    </Styled(MuiBox)>
  </form>
</Contact>"
`;
